<svg width="90" height="27" viewBox="0 0 90 27" fill="none" xmlns="http://www.w3.org/2000/svg">
<path fill-rule="evenodd" clip-rule="evenodd" d="M37.729 14.8978L34.4076 7.80526H32.6777V19.2017H34.4076V11.5902L37.1062 17.1466H38.3863L41.0158 11.5902V19.2017H42.7456V7.8191H41.0019L37.729 14.9116V14.8978ZM49.2154 16.0464C49.2438 16.2792 49.2211 16.5153 49.1489 16.7384C49.0767 16.9615 48.9567 17.1661 48.7973 17.3381C48.6379 17.51 48.4429 17.6451 48.2259 17.7339C48.0089 17.8228 47.7751 17.8632 47.5409 17.8524C46.6413 17.8524 45.9079 17.2989 45.9079 16.0533V11.1059H44.2679V16.2955C44.2367 16.7142 44.2932 17.1347 44.4338 17.5303C44.5744 17.9259 44.796 18.2878 45.0844 18.5928C45.5188 18.9587 46.0448 19.199 46.6057 19.2881C47.1666 19.3771 47.7411 19.3113 48.2674 19.0979C48.6388 18.9369 48.9732 18.7014 49.25 18.406V19.2225H50.8415V11.099H49.2085L49.2154 16.0464ZM54.0591 16.8629V7.79834H52.4191V16.9529C52.3942 17.2524 52.4346 17.5538 52.5376 17.8361C52.6405 18.1185 52.8036 18.3752 53.0155 18.5884C53.2273 18.8016 53.483 18.9662 53.7647 19.0709C54.0464 19.1756 54.3476 19.2179 54.6472 19.1948H55.6506V17.8109H54.9586C54.2667 17.804 54.0591 17.4788 54.0591 16.856V16.8629Z" fill="white"/>
<path d="M59.5887 11.002C57.5128 11.002 56.1289 12.5242 56.1289 15.1537C56.1289 18.2467 57.7481 19.3054 59.7824 19.3054C60.3521 19.3337 60.9209 19.2347 61.4475 19.0157C61.9742 18.7966 62.4454 18.463 62.827 18.0391L61.7891 17.0704C61.548 17.3513 61.2451 17.5725 60.9041 17.7165C60.5631 17.8606 60.1934 17.9237 59.8239 17.9007C58.4954 17.9007 57.7481 17.0219 57.7481 15.6311H63.0069V14.9392C63.0277 12.6073 61.7614 11.0089 59.5887 11.0089V11.002ZM57.7619 14.4617C57.7485 14.0819 57.8194 13.7038 57.9695 13.3546C58.1069 13.0425 58.3331 12.7778 58.6199 12.5934C58.9109 12.4146 59.2472 12.3233 59.5887 12.3305C59.928 12.3231 60.2621 12.4144 60.5505 12.5934C60.8336 12.7783 61.0552 13.0433 61.1871 13.3546C61.3447 13.702 61.4228 14.0803 61.4154 14.4617H57.7619Z" fill="white"/>
<path fill-rule="evenodd" clip-rule="evenodd" d="M71.1026 13.6174C70.496 13.1233 69.7517 12.8285 68.9713 12.7732L67.6774 12.5795C67.2101 12.5265 66.7669 12.3444 66.3973 12.0536C66.2509 11.9197 66.1373 11.754 66.0651 11.5692C65.9888 11.3877 65.9534 11.1917 65.9614 10.9949C65.9614 9.98467 66.7017 9.2166 68.0372 9.2166C68.4891 9.18791 68.9422 9.25097 69.3691 9.40199C69.796 9.55302 70.188 9.78888 70.5213 10.0954L71.6284 9.00902C71.1586 8.56379 70.6023 8.21982 69.9941 7.99843C69.3859 7.77704 68.7387 7.68294 68.0926 7.72198C65.7192 7.72198 64.2868 9.10589 64.2868 11.0641C64.2646 11.4659 64.3278 11.8679 64.4721 12.2436C64.6164 12.6193 64.8386 12.9601 65.1241 13.2438C65.7334 13.7619 66.4869 14.0807 67.283 14.1571L68.6254 14.3509C69.0859 14.3583 69.5292 14.5273 69.8778 14.8283C70.0294 14.9845 70.1475 15.1701 70.2248 15.3735C70.3022 15.577 70.3371 15.7941 70.3276 16.0116C70.3276 17.1187 69.4626 17.7553 67.9749 17.7553C67.439 17.7923 66.9013 17.7145 66.3977 17.5271C65.8942 17.3398 65.4364 17.0472 65.0549 16.6689L63.9062 17.8037C64.4301 18.3312 65.0619 18.7391 65.7582 18.9994C66.4545 19.2598 67.1989 19.3665 67.9403 19.3122C70.3276 19.3122 72.0367 18.0667 72.0367 15.9631C72.0619 15.5289 71.9927 15.0943 71.8338 14.6893C71.6749 14.2844 71.4302 13.9187 71.1164 13.6174H71.1026Z" fill="white"/>
<path d="M76.3339 11.0021C75.8857 10.9868 75.4392 11.0644 75.0225 11.2299C74.6057 11.3954 74.2276 11.6453 73.9121 11.964C73.1509 12.7597 72.9434 13.7907 72.9434 15.1469C72.9434 16.5032 73.1371 17.5549 73.9121 18.3507C74.5678 18.9671 75.4339 19.3103 76.3339 19.3103C77.2339 19.3103 78.1 18.9671 78.7558 18.3507C79.5169 17.5549 79.7245 16.5239 79.7245 15.1469C79.7245 13.77 79.5307 12.7597 78.7558 11.964C78.4397 11.646 78.0616 11.3965 77.6449 11.2311C77.2283 11.0656 76.782 10.9877 76.3339 11.0021ZM77.531 17.3681C77.3756 17.5245 77.1894 17.647 76.9844 17.7279C76.7779 17.8114 76.5565 17.8515 76.3339 17.8456C76.1146 17.8507 75.8965 17.811 75.6931 17.7289C75.4896 17.6468 75.305 17.524 75.1507 17.3681C74.6886 16.7231 74.4883 15.9269 74.5902 15.14C74.5902 14.2612 74.6594 13.4101 75.1438 12.9258C75.2969 12.7716 75.4808 12.6514 75.6835 12.5729C76.0998 12.4251 76.5542 12.4251 76.9705 12.5729C77.1773 12.6513 77.3657 12.7714 77.5241 12.9258C78.0223 13.4101 78.0776 14.2682 78.0776 15.14C78.1795 15.9269 77.9792 16.7231 77.5172 17.3681H77.531Z" fill="white"/>
<path fill-rule="evenodd" clip-rule="evenodd" d="M81.3775 9.98479V11.2441H80.4434V12.4897H81.3775V19.2154H83.0105V12.4827H84.6297V11.2372H83.0105V10.0747C83.0105 9.47966 83.2873 9.12676 83.91 9.12676H84.6366V7.74286H83.5987C83.3007 7.72201 83.0018 7.7657 82.7223 7.87094C82.4428 7.97618 82.1893 8.14049 81.9791 8.35266C81.7689 8.56483 81.6069 8.81986 81.5043 9.10034C81.4017 9.38082 81.3608 9.68014 81.3844 9.97787L81.3775 9.98479ZM88.1932 8.77387H86.5602V11.2441H85.6261V12.4897H86.5533V16.9597C86.5321 17.259 86.575 17.5593 86.6791 17.8408C86.7832 18.1222 86.9461 18.3782 87.157 18.5916C87.3679 18.8051 87.6218 18.9712 87.9019 19.0787C88.182 19.1863 88.4818 19.2329 88.7814 19.2154H89.7501V17.8315H89.0582C88.9323 17.8445 88.8051 17.8285 88.6863 17.7848C88.5676 17.7411 88.4604 17.6709 88.3729 17.5794C88.2855 17.4879 88.2201 17.3777 88.1817 17.2571C88.1434 17.1365 88.1331 17.0087 88.1517 16.8836V12.4966H89.7294V11.2511H88.1656L88.1932 8.77387Z" fill="white"/>
<path d="M14.0166 3.02388e-08C10.893 -0.000208942 7.86609 1.0827 5.45154 3.0642C3.03699 5.04569 1.38425 7.80314 0.77497 10.8667C0.165689 13.9302 0.637569 17.1102 2.1102 19.8648C3.58282 22.6194 5.96507 24.7781 8.85097 25.973C11.7369 27.168 14.9478 27.3252 17.9367 26.418C20.9256 25.5108 23.5074 23.5952 25.2421 20.9977C26.9769 18.4002 27.7573 15.2816 27.4503 12.1732C27.1433 9.06478 25.7679 6.15901 23.5586 3.95105C22.3058 2.69819 20.818 1.70488 19.1806 1.02807C17.5432 0.351255 15.7883 0.00424062 14.0166 0.00691576V3.02388e-08ZM14.0166 25.8098C11.1686 25.8097 8.40884 24.822 6.20747 23.0152C4.0061 21.2083 2.49932 18.6941 1.94389 15.9008C1.38845 13.1076 1.81871 10.2081 3.16136 7.69656C4.50401 5.18498 6.67598 3.21664 9.30719 2.12693C11.9384 1.03722 14.8661 0.893546 17.5913 1.7204C20.3166 2.54726 22.6708 4.29348 24.2529 6.66153C25.8351 9.02958 26.5471 11.8729 26.2679 14.7072C25.9886 17.5414 24.7352 20.1911 22.7213 22.2048C20.41 24.5094 17.2805 25.8055 14.0166 25.8098Z" fill="white"/>
<path fill-rule="evenodd" clip-rule="evenodd" d="M23.7385 10.8155C23.0456 8.36099 21.4582 6.25513 19.2893 4.91318L18.9087 5.50826L14.065 13.1197L9.17293 5.46674L8.80619 4.8855C6.62119 6.23358 5.02498 8.3561 4.33618 10.8294C3.96476 12.1252 3.8634 13.4836 4.03837 14.8202C4.21333 16.1569 4.6609 17.4434 5.35335 18.6C6.38673 20.3665 7.93394 21.7761 9.78876 22.641L10.6883 19.1812C9.6457 18.7179 8.75994 17.962 8.13845 17.0052C7.51697 16.0484 7.18646 14.9318 7.18702 13.7909C7.18558 12.5351 7.5564 11.3071 8.25263 10.262L12.4735 16.8563H15.615L19.8359 10.262C20.5301 11.3077 20.8985 12.5358 20.8946 13.7909C20.8996 14.9275 20.5756 16.0412 19.9617 16.9976C19.3478 17.9541 18.4702 18.7125 17.4348 19.1812L18.3344 22.641C20.1892 21.7761 21.7364 20.3665 22.7698 18.6C23.462 17.442 23.9095 16.1544 24.0844 14.8166C24.2594 13.4789 24.1581 12.1195 23.787 10.8225L23.7385 10.8155Z" fill="white"/>
</svg>
